…
    ## 
    ## Attaching package: 'lubridate'

    ## The following objects are masked from 'package:base':
    ## 
    ##     date, intersect, setdiff, union

``` r
long_spp$Date.corrected <- as_date(long_spp$date)
long_spp
```

    ## # A tibble: 2,940 x 8
    ##    species    primary_threat  secondary_threat tertiary_threat population date  
    ##    <chr>      <chr>           <chr>            <chr>           <chr>      <chr> 
    ##  1 Schistidi~ Habitat destru~ <NA>             <NA>            pop_1      2003-~
    ##  2 Schistidi~ Habitat destru~ <NA>             <NA>            pop_1      2004-~
    ##  3 Schistidi~ Habitat destru~ <NA>             <NA>            pop_1      2005-~
    ##  4 Schistidi~ Habitat destru~ <NA>             <NA>            pop_1      2006-~
    ##  5 Schistidi~ Habitat destru~ <NA>             <NA>            pop_1      2007-~
    ##  6 Schistidi~ Habitat destru~ <NA>             <NA>            pop_1      2008-~
    ##  7 Schistidi~ Habitat destru~ <NA>             <NA>            pop_1      2009-~
    ##  8 Schistidi~ Habitat destru~ <NA>             <NA>            pop_1      2010-~
    ##  9 Schistidi~ Habitat destru~ <NA>             <NA>            pop_1      2011-~
    ## 10 Schistidi~ Habitat destru~ <NA>             <NA>            pop_1      2012-~
    ## # ... with 2,930 more rows, and 2 more variables: abundance <dbl>,
    ## #   Date.corrected <date>
…
