…
    ## 
    ## i Use `spec()` to retrieve the full column specification for this data.
    ## i Specify the column types or set `show_col_types = FALSE` to quiet this message.

## Task 2

\*these two data are shown as below:

``` r
sort_pop_1
```

    ## # A tibble: 30 x 29
    ##    species     primary_threat  secondary_threat tertiary_threat `pop_1_2003-01-~
    ##    <chr>       <chr>           <chr>            <chr>                      <dbl>
    ##  1 Schistidiu~ Habitat destru~ <NA>             <NA>                          NA
    ##  2 Paraleucob~ Exploitation    Habitat loss     <NA>                          NA
    ##  3 Scapania p~ Climate change  <NA>             <NA>                          NA
    ##  4 Seligera r~ Exploitation    <NA>             <NA>                          NA
    ##  5 Tortula su~ Habitat loss    Pollution        Climate change                96
    ##  6 Pohlia mel~ <NA>            <NA>             <NA>                         288
    ##  7 Bryum weig~ Exploitation    <NA>             <NA>                          81
    ##  8 Ceratodon ~ <NA>            <NA>             <NA>                          NA
    ##  9 Trichocole~ Climate change  <NA>             <NA>                         245
    ## 10 Bryum klin~ Habitat loss    <NA>             <NA>                          22
    ## # ... with 20 more rows, and 24 more variables: pop_1_2004-01-01 <dbl>,
    ## #   pop_1_2005-01-01 <dbl>, pop_1_2006-01-01 <dbl>, pop_1_2007-01-01 <dbl>,
    ## #   pop_1_2008-01-01 <dbl>, pop_1_2009-01-01 <dbl>, pop_1_2010-01-01 <dbl>,
    ## #   pop_1_2011-01-01 <dbl>, pop_1_2012-01-01 <dbl>, pop_1_2013-01-01 <dbl>,
    ## #   pop_1_2014-01-01 <dbl>, pop_1_2015-01-01 <dbl>, pop_1_2016-01-01 <dbl>,
    ## #   pop_1_2017-01-01 <dbl>, pop_1_2018-01-01 <dbl>, pop_1_2019-01-01 <dbl>,
    ## #   pop_1_2000-01-01 <dbl>, pop_1_2001-01-01 <dbl>, pop_1_2002-01-01 <dbl>, ...

``` r
sort_pop_2
```

    ## # A tibble: 30 x 28
    ##    species     primary_threat  secondary_threat tertiary_threat `pop_2_2000-01-~
    ##    <chr>       <chr>           <chr>            <chr>                      <dbl>
    ##  1 Sphagnum p~ <NA>            <NA>             <NA>                          NA
    ##  2 Pohlia wah~ Habitat loss    Pollution        <NA>                          NA
    ##  3 Sphagnum l~ Pollution       Exploitation     <NA>                          NA
    ##  4 Marchantia~ <NA>            <NA>             <NA>                          NA
    ##  5 Platyhypni~ Habitat loss    <NA>             <NA>                          NA
    ##  6 Scleropodi~ Pollution       <NA>             <NA>                          NA
    ##  7 Hedwigia s~ Habitat fragme~ <NA>             <NA>                          NA
    ##  8 Cephalozia~ Habitat fragme~ <NA>             <NA>                          NA
    ##  9 Rhynchoste~ <NA>            <NA>             <NA>                          NA
    ## 10 Pseudolesk~ Habitat loss    <NA>             <NA>                          70
    ## # ... with 20 more rows, and 23 more variables: pop_2_2001-01-01 <dbl>,
    ## #   pop_2_2002-01-01 <dbl>, pop_2_2003-01-01 <dbl>, pop_2_2004-01-01 <dbl>,
    ## #   pop_2_2005-01-01 <dbl>, pop_2_2006-01-01 <dbl>, pop_2_2007-01-01 <dbl>,
    ## #   pop_2_2008-01-01 <dbl>, pop_2_2009-01-01 <dbl>, pop_2_2010-01-01 <dbl>,
    ## #   pop_2_2011-01-01 <dbl>, pop_2_2012-01-01 <dbl>, pop_2_2013-01-01 <dbl>,
    ## #   pop_2_2014-01-01 <dbl>, pop_2_2015-01-01 <dbl>, pop_2_2016-01-01 <dbl>,
    ## #   pop_2_2017-01-01 <dbl>, pop_2_2018-01-01 <dbl>, pop_2_2019-01-01 <dbl>, ...
…
``` r
##use full_join to join these data into a single tibble as sort_pop
sort_pop <- full_join(sort_pop_1, sort_pop_2)
```

    ## Joining, by = c("species", "primary_threat", "secondary_threat", "tertiary_threat")

``` r
##look at sort_pop
sort_pop
```

    ## # A tibble: 60 x 53
    ##    species     primary_threat  secondary_threat tertiary_threat `pop_1_2003-01-~
    ##    <chr>       <chr>           <chr>            <chr>                      <dbl>
    ##  1 Schistidiu~ Habitat destru~ <NA>             <NA>                          NA
    ##  2 Paraleucob~ Exploitation    Habitat loss     <NA>                          NA
    ##  3 Scapania p~ Climate change  <NA>             <NA>                          NA
    ##  4 Seligera r~ Exploitation    <NA>             <NA>                          NA
    ##  5 Tortula su~ Habitat loss    Pollution        Climate change                96
    ##  6 Pohlia mel~ <NA>            <NA>             <NA>                         288
    ##  7 Bryum weig~ Exploitation    <NA>             <NA>                          81
    ##  8 Ceratodon ~ <NA>            <NA>             <NA>                          NA
    ##  9 Trichocole~ Climate change  <NA>             <NA>                         245
    ## 10 Bryum klin~ Habitat loss    <NA>             <NA>                          22
    ## # ... with 50 more rows, and 48 more variables: pop_1_2004-01-01 <dbl>,
    ## #   pop_1_2005-01-01 <dbl>, pop_1_2006-01-01 <dbl>, pop_1_2007-01-01 <dbl>,
    ## #   pop_1_2008-01-01 <dbl>, pop_1_2009-01-01 <dbl>, pop_1_2010-01-01 <dbl>,
    ## #   pop_1_2011-01-01 <dbl>, pop_1_2012-01-01 <dbl>, pop_1_2013-01-01 <dbl>,
    ## #   pop_1_2014-01-01 <dbl>, pop_1_2015-01-01 <dbl>, pop_1_2016-01-01 <dbl>,
    ## #   pop_1_2017-01-01 <dbl>, pop_1_2018-01-01 <dbl>, pop_1_2019-01-01 <dbl>,
    ## #   pop_1_2000-01-01 <dbl>, pop_1_2001-01-01 <dbl>, pop_1_2002-01-01 <dbl>, ...
…
##our data frame
sort_pop_long <- sort_pop %>%
  ##and then apply this function to shape data from wide to long format
  ##keep the four columns: species; primary_threat; secondary_threat; tertiary_threat
  ##and add population, date and abundance
  pivot_longer(cols = -c(species:tertiary_threat),
               names_to = c("population", "date"),
               names_pattern = "(.*)_(.*)",
               values_drop_na = F,
               values_to = "abundance")
##look at the long format data
sort_pop_long
```

    ## # A tibble: 2,940 x 7
    ##    species    primary_threat  secondary_threat tertiary_threat population date  
    ##    <chr>      <chr>           <chr>            <chr>           <chr>      <chr> 
    ##  1 Schistidi~ Habitat destru~ <NA>             <NA>            pop_1      2003-~
    ##  2 Schistidi~ Habitat destru~ <NA>             <NA>            pop_1      2004-~
    ##  3 Schistidi~ Habitat destru~ <NA>             <NA>            pop_1      2005-~
    ##  4 Schistidi~ Habitat destru~ <NA>             <NA>            pop_1      2006-~
    ##  5 Schistidi~ Habitat destru~ <NA>             <NA>            pop_1      2007-~
    ##  6 Schistidi~ Habitat destru~ <NA>             <NA>            pop_1      2008-~
    ##  7 Schistidi~ Habitat destru~ <NA>             <NA>            pop_1      2009-~
    ##  8 Schistidi~ Habitat destru~ <NA>             <NA>            pop_1      2010-~
    ##  9 Schistidi~ Habitat destru~ <NA>             <NA>            pop_1      2011-~
    ## 10 Schistidi~ Habitat destru~ <NA>             <NA>            pop_1      2012-~
    ## # ... with 2,930 more rows, and 1 more variable: abundance <dbl>
